
<svg width="459px" height="415px" viewBox="0 0 459 415" version="1.1" xmlns="http://www.w3.org/2000/svg" xmlns:xlink="http://www.w3.org/1999/xlink">
    <!-- Generator: Sketch 47.1 (45422) - http://www.bohemiancoding.com/sketch -->
    <desc>Created with Sketch.</desc>
    <defs></defs>
    <g id="Page-1" stroke="none" stroke-width="1" fill="none" fill-rule="evenodd">
        <g id="Artboard-Copy-3" transform="translate(-75.000000, -854.000000)">
            <g id="Group-5" transform="translate(75.000000, 854.000000)">
                <g id="Group-2" transform="translate(48.000000, 200.000000)">
                    <path d="M11.8489209,6.5 L358.540679,6.5" id="Line" stroke="#222233" stroke-width="5" stroke-linecap="square"></path>
                    <ellipse id="Oval-2" fill="#222233" cx="6.58273381" cy="6.5" rx="6.58273381" ry="6.5"></ellipse>
                    <ellipse id="Oval-2" fill="#222233" cx="359.417266" cy="6.5" rx="6.58273381" ry="6.5"></ellipse>
                </g>
                <g id="Group-2" transform="translate(231.000000, 206.500000) rotate(90.000000) translate(-231.000000, -206.500000) translate(48.000000, 200.000000)">
                    <path d="M11.8489209,6.5 L358.540679,6.5" id="Line" stroke="#222233" stroke-width="5" stroke-linecap="square"></path>
                    <ellipse id="Oval-2" fill="#222233" cx="6.58273381" cy="6.5" rx="6.58273381" ry="6.5"></ellipse>
                    <ellipse id="Oval-2" fill="#222233" cx="359.417266" cy="6.5" rx="6.58273381" ry="6.5"></ellipse>
                </g>
                <path d="M219.88,7.88 L219.88,5.42 L212.02,5.42 C212.22,3.56 212.24,1.72 212.26,0.08 L209.66,0.08 C209.64,1.72 209.66,3.54 209.46,5.42 L202.18,5.42 L202.18,7.88 L209.06,7.88 C208.28,11.32 206.38,14.64 201.8,16.68 C202.5,17.18 203.2,18.04 203.58,18.7 C207.82,16.66 209.98,13.54 211.06,10.2 C212.62,14.06 214.94,16.98 218.56,18.68 C218.94,18 219.72,16.94 220.32,16.44 C216.58,14.92 214.16,11.78 212.84,7.88 L219.88,7.88 Z M229.097576,0.52 C228.957576,3.16 229.237576,12.24 221.257576,16.66 C222.057576,17.22 222.837576,17.94 223.257576,18.56 C227.477576,15.98 229.577576,12.12 230.657576,8.52 C231.777576,12.2 234.017576,16.32 238.537576,18.56 C238.917576,17.92 239.637576,17.1 240.377576,16.54 C232.917576,13.04 231.917576,4.42 231.757576,1.66 C231.777576,1.24 231.797576,0.84 231.817576,0.52 L229.097576,0.52 Z M251.235151,12.36 L249.675151,12.36 C249.455151,13.48 249.115151,14.42 248.615151,15.2 C249.235151,15.56 249.815151,15.92 250.275151,16.26 C251.755151,15.48 252.915151,14.48 253.795151,13.24 C253.235151,12.06 252.795151,10.74 252.435151,9.3 C252.155151,9.82 251.835151,10.3 251.515151,10.74 C251.435151,10.66 251.355151,10.56 251.235151,10.44 L251.235151,12.36 Z M245.495151,12.36 L244.915151,13.42 C245.515151,13.66 246.095151,13.9 246.675151,14.18 C246.995151,13.68 247.255151,13.08 247.435151,12.36 L245.495151,12.36 Z M256.255151,5.86 L253.955151,5.86 C254.235151,7.54 254.635151,9.12 255.175151,10.56 C255.675151,9.2 256.035151,7.62 256.255151,5.86 Z M259.835151,5.86 L258.715151,5.86 C258.295151,8.82 257.615151,11.3 256.535151,13.32 C257.455151,14.74 258.615151,15.88 260.075151,16.64 C259.535151,17.12 258.795151,18.04 258.435151,18.7 C257.075151,17.88 255.975151,16.82 255.075151,15.52 C253.975151,16.84 252.595151,17.92 250.855151,18.8 C250.715151,18.46 250.415151,17.92 250.095151,17.44 L249.195151,18.36 C248.655151,17.9 247.935151,17.38 247.115151,16.86 C245.935151,17.74 244.335151,18.32 242.195151,18.76 C242.055151,18.08 241.635151,17.28 241.255151,16.78 C242.855151,16.58 244.115151,16.24 245.055151,15.72 C244.695151,15.52 244.315151,15.34 243.935151,15.18 L243.715151,15.56 L241.635151,14.92 C242.075151,14.22 242.575151,13.32 243.075151,12.36 L241.175151,12.36 L241.175151,10.44 L244.075151,10.44 C244.315151,9.94 244.555151,9.46 244.755151,9.02 L245.195151,9.12 L245.195151,7.2 C244.275151,8.12 243.195151,8.96 242.195151,9.52 C241.935151,9 241.435151,8.22 240.995151,7.8 C242.215151,7.3 243.555151,6.34 244.515151,5.3 L241.395151,5.3 L241.395151,3.42 L242.915151,3.42 C242.735151,2.74 242.295151,1.82 241.875151,1.1 L243.595151,0.38 C244.115151,1.14 244.635151,2.16 244.795151,2.86 L243.515151,3.42 L245.195151,3.42 L245.195151,0.06 L247.375151,0.06 L247.375151,3.42 L248.955151,3.42 L247.635151,2.84 C248.095151,2.12 248.655151,1.06 248.975151,0.3 L250.975151,1.1 C250.355151,1.96 249.735151,2.8 249.255151,3.42 L251.155151,3.42 L251.155151,5.3 L247.875151,5.3 C248.835151,5.84 250.255151,6.68 250.695151,6.98 L249.435151,8.62 C248.995151,8.2 248.155151,7.5 247.375151,6.88 L247.375151,9.3 L246.095151,9.3 L246.955151,9.48 L246.475151,10.44 L251.235151,10.44 C250.775151,9.98 250.055151,9.36 249.615151,9.06 C251.315151,7.02 252.275151,3.62 252.755151,0.06 L255.155151,0.38 C254.995151,1.5 254.775151,2.6 254.515151,3.66 L259.835151,3.66 L259.835151,5.86 Z" id="大人数" fill="#222233"></path>
                <path d="M209.8,396.06 L212.22,396.06 L212.22,405.76 C212.22,407.02 211.98,407.7 211.12,408.06 C210.26,408.44 209.04,408.52 207.42,408.52 C207.32,407.82 206.94,406.74 206.58,406.06 C207.72,406.1 208.96,406.1 209.32,406.08 C209.68,406.08 209.8,406 209.8,405.72 L209.8,396.06 Z M214.1,399.4 L216.32,398.26 C217.94,400.24 219.78,402.92 220.48,404.84 L218.04,406.14 C217.44,404.3 215.74,401.5 214.1,399.4 Z M215.02,404.46 L217.58,405.2 C215.62,411.36 211.64,413.68 204.42,414.82 C204.18,414.06 203.66,413.06 203.16,412.44 C209.78,411.7 213.4,409.8 215.02,404.46 Z M205.24,398.56 L207.9,399.18 C206.94,401.7 205.48,404.58 203.76,406.34 C203.2,405.9 202.2,405.26 201.6,404.94 C203.26,403.36 204.62,400.66 205.24,398.56 Z M229.097576,396.52 C228.957576,399.16 229.237576,408.24 221.257576,412.66 C222.057576,413.22 222.837576,413.94 223.257576,414.56 C227.477576,411.98 229.577576,408.12 230.657576,404.52 C231.777576,408.2 234.017576,412.32 238.537576,414.56 C238.917576,413.92 239.637576,413.1 240.377576,412.54 C232.917576,409.04 231.917576,400.42 231.757576,397.66 C231.777576,397.24 231.797576,396.84 231.817576,396.52 L229.097576,396.52 Z M251.235151,408.36 L249.675151,408.36 C249.455151,409.48 249.115151,410.42 248.615151,411.2 C249.235151,411.56 249.815151,411.92 250.275151,412.26 C251.755151,411.48 252.915151,410.48 253.795151,409.24 C253.235151,408.06 252.795151,406.74 252.435151,405.3 C252.155151,405.82 251.835151,406.3 251.515151,406.74 C251.435151,406.66 251.355151,406.56 251.235151,406.44 L251.235151,408.36 Z M245.495151,408.36 L244.915151,409.42 C245.515151,409.66 246.095151,409.9 246.675151,410.18 C246.995151,409.68 247.255151,409.08 247.435151,408.36 L245.495151,408.36 Z M256.255151,401.86 L253.955151,401.86 C254.235151,403.54 254.635151,405.12 255.175151,406.56 C255.675151,405.2 256.035151,403.62 256.255151,401.86 Z M259.835151,401.86 L258.715151,401.86 C258.295151,404.82 257.615151,407.3 256.535151,409.32 C257.455151,410.74 258.615151,411.88 260.075151,412.64 C259.535151,413.12 258.795151,414.04 258.435151,414.7 C257.075151,413.88 255.975151,412.82 255.075151,411.52 C253.975151,412.84 252.595151,413.92 250.855151,414.8 C250.715151,414.46 250.415151,413.92 250.095151,413.44 L249.195151,414.36 C248.655151,413.9 247.935151,413.38 247.115151,412.86 C245.935151,413.74 244.335151,414.32 242.195151,414.76 C242.055151,414.08 241.635151,413.28 241.255151,412.78 C242.855151,412.58 244.115151,412.24 245.055151,411.72 C244.695151,411.52 244.315151,411.34 243.935151,411.18 L243.715151,411.56 L241.635151,410.92 C242.075151,410.22 242.575151,409.32 243.075151,408.36 L241.175151,408.36 L241.175151,406.44 L244.075151,406.44 C244.315151,405.94 244.555151,405.46 244.755151,405.02 L245.195151,405.12 L245.195151,403.2 C244.275151,404.12 243.195151,404.96 242.195151,405.52 C241.935151,405 241.435151,404.22 240.995151,403.8 C242.215151,403.3 243.555151,402.34 244.515151,401.3 L241.395151,401.3 L241.395151,399.42 L242.915151,399.42 C242.735151,398.74 242.295151,397.82 241.875151,397.1 L243.595151,396.38 C244.115151,397.14 244.635151,398.16 244.795151,398.86 L243.515151,399.42 L245.195151,399.42 L245.195151,396.06 L247.375151,396.06 L247.375151,399.42 L248.955151,399.42 L247.635151,398.84 C248.095151,398.12 248.655151,397.06 248.975151,396.3 L250.975151,397.1 C250.355151,397.96 249.735151,398.8 249.255151,399.42 L251.155151,399.42 L251.155151,401.3 L247.875151,401.3 C248.835151,401.84 250.255151,402.68 250.695151,402.98 L249.435151,404.62 C248.995151,404.2 248.155151,403.5 247.375151,402.88 L247.375151,405.3 L246.095151,405.3 L246.955151,405.48 L246.475151,406.44 L251.235151,406.44 C250.775151,405.98 250.055151,405.36 249.615151,405.06 C251.315151,403.02 252.275151,399.62 252.755151,396.06 L255.155151,396.38 C254.995151,397.5 254.775151,398.6 254.515151,399.66 L259.835151,399.66 L259.835151,401.86 Z" id="少人数" fill="#222233"></path>
                <path d="M431.7,211.5 L431.7,210.2 L428.24,210.2 L428.24,211.5 L431.7,211.5 Z M438.1,205.74 L438.1,212.22 C438.1,213.32 437.88,213.96 437.1,214.32 C436.36,214.68 435.3,214.7 433.86,214.7 C433.8,214.24 433.62,213.62 433.4,213.1 L428.24,213.1 L428.24,214 L426.16,214 L426.16,208.62 L433.8,208.62 L433.8,212.5 C434.48,212.52 435.1,212.52 435.32,212.5 C435.62,212.48 435.7,212.42 435.7,212.18 L435.7,207.72 L424.38,207.72 L424.38,214.74 L422.06,214.74 L422.06,205.74 L438.1,205.74 Z M433.04,203.3 L433.04,202.08 L426.8,202.08 L426.8,203.3 L433.04,203.3 Z M424.54,200.5 L435.46,200.5 L435.46,204.9 L424.54,204.9 L424.54,200.5 Z M431.08,197.72 L431.08,196.04 L428.66,196.04 L428.66,197.72 L421.26,197.72 L421.26,199.74 L438.74,199.74 L438.74,197.72 L431.08,197.72 Z M444.997576,198.76 L441.957576,198.72 C442.077576,199.32 442.097576,200.16 442.097576,200.72 C442.097576,201.94 442.137576,204.24 442.317576,206.06 C442.877576,211.38 444.777576,213.34 446.937576,213.34 C448.537576,213.34 449.777576,212.12 451.097576,208.68 L449.097576,206.28 C448.717576,207.84 447.937576,210.16 446.997576,210.16 C445.757576,210.16 445.157576,208.22 444.877576,205.36 C444.757576,203.94 444.737576,202.44 444.757576,201.16 C444.757576,200.62 444.857576,199.46 444.997576,198.76 Z M454.897576,199.18 L452.377576,200.02 C454.537576,202.46 455.597576,207.12 455.897576,210.3 L458.517576,209.3 C458.297576,206.26 456.777576,201.48 454.897576,199.18 Z" id="高い" fill="#222233"></path>
                <path d="M2.96,200.04 L2.96,202.54 L0.54,202.54 L0.54,197.84 L7.68,197.84 L7.68,196.06 L10.2,196.06 L10.2,197.84 L17.54,197.84 L17.54,202.54 L15,202.54 L15,200.04 L2.96,200.04 Z M11.82,205.72 L7.16,205.72 C6.74,206.56 6.3,207.38 5.9,208.16 C7.1,208.5 8.4,208.94 9.72,209.42 C10.7,208.46 11.4,207.26 11.82,205.72 Z M17.9,205.72 L14.58,205.72 C14,207.62 13.18,209.12 12.1,210.34 C14.04,211.14 15.84,211.98 17.1,212.76 L15.2,214.7 C13.98,213.88 12.14,212.94 10.12,212.06 C8,213.48 5.28,214.26 1.92,214.74 C1.7,214.18 1.02,213.1 0.56,212.58 C3.36,212.3 5.64,211.82 7.44,210.96 C6.56,210.64 5.7,210.32 4.86,210.06 L4.5,210.7 L2,210.02 C2.72,208.86 3.56,207.34 4.42,205.72 L0.12,205.72 L0.12,203.48 L5.56,203.48 C6.08,202.46 6.56,201.44 6.96,200.52 L9.46,201.04 C9.1,201.82 8.7,202.64 8.28,203.48 L17.9,203.48 L17.9,205.72 Z M23.9975757,198.76 L20.9575757,198.72 C21.0775757,199.32 21.0975757,200.16 21.0975757,200.72 C21.0975757,201.94 21.1375757,204.24 21.3175757,206.06 C21.8775757,211.38 23.7775757,213.34 25.9375757,213.34 C27.5375757,213.34 28.7775757,212.12 30.0975757,208.68 L28.0975757,206.28 C27.7175757,207.84 26.9375757,210.16 25.9975757,210.16 C24.7575757,210.16 24.1575757,208.22 23.8775757,205.36 C23.7575757,203.94 23.7375757,202.44 23.7575757,201.16 C23.7575757,200.62 23.8575757,199.46 23.9975757,198.76 Z M33.8975757,199.18 L31.3775757,200.02 C33.5375757,202.46 34.5975757,207.12 34.8975757,210.3 L37.5175757,209.3 C37.2975757,206.26 35.7775757,201.48 33.8975757,199.18 Z" id="安い" fill="#222233"></path>
                <circle id="Oval-3" fill="#8BE4ED" cx="141" cy="116" r="72"></circle>
                <path d="M106.56,111.18 L106.56,113.92 L115.72,113.92 L115.72,111.18 L106.56,111.18 Z M112.38,120.84 L112.38,124.04 C113.34,124.2 114.4,124.26 115.48,124.26 C116.34,124.28 119.3,124.26 120.4,124.24 C120.08,124.78 119.7,125.88 119.58,126.54 L115.34,126.54 C111.32,126.54 108.22,125.82 106.14,122.76 C105.48,124.3 104.62,125.68 103.4,126.68 C103.04,126.2 102.22,125.42 101.72,125.06 C103.88,123.36 104.76,120.1 105.04,117.38 L107.52,117.66 C107.4,118.44 107.24,119.24 107.04,120.04 C107.68,121.62 108.7,122.62 109.92,123.26 L109.92,116.18 L104.18,116.18 L104.18,108.9 L118.26,108.9 L118.26,116.18 L112.38,116.18 L112.38,118.64 L118.9,118.64 L118.9,120.84 L112.38,120.84 Z M126.237576,120.58 L127.257576,120.58 C127.637576,120.58 127.697576,120.1 127.757576,117.98 C128.237576,118.38 129.217576,118.8 129.857576,118.94 C129.637576,121.88 129.057576,122.84 127.477576,122.84 L125.817576,122.84 C123.937576,122.84 123.477576,122.1 123.477576,119.66 L123.477576,116 L121.617576,116.36 L121.237576,114.16 L123.477576,113.74 L123.477576,108.66 L125.817576,108.66 L125.817576,113.28 L129.717576,112.54 L130.077576,114.7 L125.817576,115.54 L125.817576,119.66 C125.817576,120.46 125.857576,120.58 126.237576,120.58 Z M128.757576,109.54 L139.737576,109.54 C139.737576,109.54 139.717576,110.44 139.697576,110.76 C139.497576,120.72 139.297576,124.18 138.537576,125.28 C137.977576,126.08 137.477576,126.32 136.717576,126.48 C135.977576,126.6 134.897576,126.58 133.817576,126.54 C133.777576,125.88 133.497576,124.78 133.077576,124.1 C134.117576,124.18 135.057576,124.18 135.517576,124.18 C135.857576,124.18 136.077576,124.1 136.297576,123.8 C136.837576,123.1 137.077576,119.9 137.237576,111.82 L134.137576,111.82 C134.017576,118.18 133.517576,123.7 128.597576,126.86 C128.257576,126.22 127.537576,125.38 126.917576,124.94 C131.417576,122.24 131.677576,117.46 131.757576,111.82 L128.757576,111.82 L128.757576,109.54 Z M145.055151,108.88 C145.035151,109.44 144.995151,110.24 144.895151,110.96 C144.595151,113 144.335151,115.46 144.335151,117.3 C144.335151,118.62 144.475151,119.84 144.575151,120.6 L147.035151,120.44 C146.915151,119.52 146.915151,118.88 146.935151,118.34 C147.035151,115.74 149.075151,112.22 151.415151,112.22 C153.055151,112.22 154.075151,113.92 154.075151,116.98 C154.075151,121.78 150.995151,123.22 146.595151,123.9 L148.095151,126.2 C153.335151,125.24 156.775151,122.56 156.775151,116.96 C156.775151,112.6 154.635151,109.9 151.875151,109.9 C149.635151,109.9 147.915151,111.58 146.975151,113.1 C147.095151,112 147.495151,109.98 147.775151,109 L145.055151,108.88 Z M178.392727,108.28 L178.392727,116.82 C178.392727,117.92 178.192727,118.48 177.432727,118.82 C176.712727,119.14 175.692727,119.2 174.292727,119.2 C174.192727,118.58 173.872727,117.68 173.592727,117.1 C174.492727,117.14 175.452727,117.14 175.752727,117.12 C176.032727,117.1 176.132727,117.04 176.132727,116.78 L176.132727,108.28 L178.392727,108.28 Z M174.672727,109.2 L174.672727,115.96 L172.492727,115.96 L172.492727,109.2 L174.672727,109.2 Z M165.872727,112.94 L167.552727,112.94 L167.552727,110.84 L165.872727,110.84 L165.872727,112.94 Z M171.492727,123.9 L179.252727,123.9 L179.252727,126.1 L161.232727,126.1 L161.232727,123.9 L169.052727,123.9 L169.052727,122.3 L163.252727,122.3 L163.252727,120.14 L169.032727,120.14 L169.032727,118.88 L167.552727,118.88 L167.552727,115.04 L165.712727,115.04 C165.392727,116.68 164.552727,118.32 162.572727,119.42 C162.272727,118.98 161.432727,118.08 161.012727,117.76 C162.492727,117 163.152727,116.04 163.452727,115.04 L161.432727,115.04 L161.432727,112.94 L163.692727,112.94 L163.692727,110.84 L162.112727,110.84 L162.112727,108.76 L171.192727,108.76 L171.192727,110.84 L169.772727,110.84 L169.772727,112.94 L171.652727,112.94 L171.652727,115.04 L169.772727,115.04 L169.772727,118.54 L171.492727,118.54 L171.492727,120.14 L177.272727,120.14 L177.272727,122.3 L171.492727,122.3 L171.492727,123.9 Z" id="足切り型" fill="#222233"></path>
            </g>
        </g>
    </g>
</svg>
